/* File : example.i */
%module example
%{
/* Put headers and other declarations here */
extern int main(int argc, char** argv);
//extern int main(int argc, char* argv[]);
%}
 
extern int main(int argc, char** argv);
//extern int main(int argc, char* argv[]);

